iter	Passed	Remaining
0	181	181467
1	199	99419
2	213	70892
3	228	56875
4	241	48086
5	255	42245
6	268	38146
7	282	34998
8	295	32508
9	308	30504
10	321	28875
11	334	27525
12	346	26333
13	360	25358
14	373	24508
15	386	23774
16	399	23109
17	412	22500
18	425	21952
19	438	21462
20	451	21026
21	464	20637
22	477	20272
23	490	19947
24	504	19656
25	520	19481
26	534	19264
27	549	19066
28	562	18838
29	575	18614
30	589	18421
31	602	18238
32	616	18058
33	630	17904
34	645	17790
35	658	17639
36	672	17497
37	685	17352
38	698	17215
39	711	17073
40	724	16957
41	737	16827
42	750	16712
43	764	16608
44	777	16500
45	790	16390
46	804	16312
47	819	16251
48	832	16162
49	846	16074
50	859	15992
51	872	15907
52	886	15846
53	899	15757
54	912	15675
55	925	15596
56	937	15515
57	950	15444
58	963	15368
59	976	15296
60	989	15227
61	1002	15164
62	1015	15100
63	1028	15040
64	1040	14972
65	1054	14917
66	1068	14874
67	1081	14825
68	1095	14781
69	1109	14734
70	1122	14692
71	1135	14634
72	1148	14580
73	1163	14556
74	1176	14507
75	1189	14461
76	1202	14413
77	1215	14362
78	1227	14315
79	1240	14269
80	1253	14221
81	1266	14178
82	1280	14143
83	1293	14104
84	1306	14066
85	1320	14037
86	1334	14004
87	1348	13972
88	1361	13932
89	1374	13897
90	1388	13867
91	1401	13834
92	1414	13796
93	1428	13764
94	1442	13742
95	1455	13702
96	1469	13678
97	1482	13644
98	1497	13628
99	1510	13594
100	1523	13560
101	1535	13522
102	1549	13490
103	1561	13455
104	1575	13425
105	1588	13395
106	1601	13363
107	1615	13339
108	1630	13324
109	1645	13310
110	1661	13305
111	1675	13281
112	1689	13263
113	1702	13230
114	1715	13204
115	1728	13170
116	1741	13146
117	1759	13147
118	1772	13123
119	1786	13102
120	1800	13077
121	1813	13053
122	1827	13029
123	1840	13004
124	1854	12979
125	1868	12960
126	1883	12945
127	1896	12922
128	1910	12902
129	1923	12874
130	1937	12852
131	1950	12828
132	1964	12806
133	1977	12780
134	1991	12758
135	2004	12737
136	2018	12713
137	2031	12691
138	2045	12667
139	2059	12649
140	2072	12627
141	2086	12606
142	2099	12585
143	2113	12563
144	2126	12541
145	2141	12523
146	2155	12505
147	2170	12494
148	2185	12481
149	2199	12461
150	2213	12445
151	2227	12426
152	2241	12406
153	2256	12394
154	2269	12373
155	2283	12354
156	2298	12339
157	2312	12324
158	2326	12304
159	2340	12286
160	2354	12269
161	2368	12251
162	2382	12231
163	2410	12285
164	2424	12267
165	2438	12250
166	2453	12236
167	2467	12218
168	2482	12208
169	2507	12241
170	2522	12229
171	2536	12210
172	2550	12193
173	2564	12174
174	2578	12157
175	2592	12139
176	2607	12122
177	2622	12112
178	2638	12099
179	2652	12083
180	2665	12062
181	2678	12039
182	2692	12021
183	2705	11998
184	2718	11975
185	2732	11960
186	2746	11939
187	2759	11918
188	2774	11905
189	2787	11882
190	2800	11859
191	2813	11838
192	2826	11818
193	2839	11797
194	2853	11778
195	2866	11756
196	2879	11738
197	2893	11719
198	2906	11698
199	2919	11677
200	2932	11658
201	2945	11636
202	2958	11614
203	2971	11593
204	2984	11572
205	2997	11551
206	3010	11534
207	3024	11517
208	3038	11498
209	3051	11480
210	3064	11458
211	3077	11437
212	3090	11417
213	3103	11399
214	3117	11381
215	3130	11362
216	3143	11343
217	3156	11323
218	3170	11306
219	3183	11285
220	3195	11265
221	3208	11245
222	3221	11225
223	3234	11204
224	3247	11187
225	3261	11170
226	3276	11155
227	3290	11142
228	3303	11123
229	3319	11112
230	3332	11094
231	3345	11073
232	3357	11053
233	3371	11036
234	3384	11017
235	3397	10997
236	3410	10978
237	3422	10958
238	3435	10940
239	3449	10923
240	3462	10903
241	3475	10887
242	3489	10871
243	3502	10853
244	3516	10836
245	3537	10843
246	3551	10826
247	3564	10809
248	3578	10792
249	3591	10774
250	3604	10757
251	3618	10740
252	3632	10725
253	3646	10708
254	3658	10689
255	3671	10670
256	3685	10655
257	3698	10637
258	3712	10621
259	3725	10603
260	3738	10586
261	3751	10566
262	3765	10552
263	3778	10534
264	3791	10516
265	3804	10498
266	3817	10481
267	3831	10465
268	3845	10448
269	3857	10429
270	3870	10411
271	3884	10396
272	3898	10380
273	3910	10362
274	3923	10344
275	3936	10326
276	3949	10309
277	3962	10290
278	3975	10273
279	3987	10254
280	4000	10237
281	4013	10218
282	4027	10203
283	4040	10185
284	4053	10168
285	4066	10152
286	4081	10140
287	4094	10123
288	4108	10107
289	4122	10094
290	4136	10078
291	4151	10064
292	4164	10048
293	4176	10030
294	4189	10011
295	4202	9995
296	4215	9977
297	4228	9962
298	4242	9947
299	4256	9931
300	4269	9914
301	4283	9899
302	4295	9882
303	4308	9864
304	4321	9848
305	4334	9831
306	4348	9815
307	4362	9802
308	4375	9785
309	4389	9770
310	4402	9753
311	4416	9738
312	4429	9722
313	4442	9706
314	4455	9689
315	4470	9675
316	4482	9658
317	4495	9641
318	4508	9624
319	4521	9608
320	4534	9591
321	4547	9575
322	4560	9558
323	4572	9541
324	4585	9524
325	4600	9511
326	4614	9496
327	4627	9481
328	4641	9465
329	4654	9450
330	4667	9434
331	4681	9419
332	4694	9402
333	4707	9385
334	4720	9371
335	4734	9356
336	4749	9343
337	4763	9328
338	4777	9315
339	4791	9301
340	4805	9287
341	4819	9272
342	4833	9257
343	4846	9241
344	4860	9227
345	4874	9213
346	4889	9200
347	4905	9190
348	4919	9176
349	4933	9162
350	4947	9148
351	4960	9132
352	4974	9117
353	4987	9100
354	5000	9084
355	5012	9067
356	5025	9051
357	5038	9035
358	5051	9019
359	5064	9003
360	5077	8986
361	5089	8970
362	5102	8954
363	5116	8940
364	5129	8924
365	5143	8910
366	5157	8895
367	5170	8880
368	5183	8864
369	5197	8850
370	5210	8834
371	5224	8819
372	5238	8805
373	5251	8789
374	5264	8774
375	5277	8758
376	5290	8743
377	5303	8727
378	5317	8712
379	5330	8696
380	5343	8680
381	5356	8665
382	5369	8649
383	5381	8633
384	5395	8619
385	5409	8604
386	5422	8589
387	5435	8574
388	5449	8559
389	5462	8544
390	5475	8528
391	5488	8512
392	5501	8497
393	5514	8482
394	5527	8466
395	5540	8450
396	5553	8435
397	5566	8419
398	5580	8405
399	5594	8391
400	5607	8376
401	5621	8361
402	5634	8347
403	5647	8331
404	5661	8317
405	5674	8302
406	5688	8287
407	5702	8274
408	5717	8261
409	5730	8245
410	5744	8232
411	5757	8216
412	5770	8201
413	5783	8186
414	5796	8170
415	5809	8155
416	5821	8139
417	5834	8123
418	5847	8108
419	5860	8093
420	5873	8078
421	5886	8062
422	5899	8047
423	5914	8034
424	5927	8018
425	5940	8004
426	5953	7989
427	5967	7975
428	5981	7961
429	5995	7946
430	6008	7931
431	6021	7916
432	6034	7901
433	6047	7886
434	6060	7871
435	6073	7856
436	6090	7846
437	6104	7832
438	6116	7816
439	6129	7801
440	6142	7786
441	6155	7771
442	6168	7756
443	6182	7741
444	6195	7726
445	6208	7711
446	6224	7700
447	6237	7685
448	6252	7672
449	6265	7658
450	6278	7643
451	6291	7628
452	6305	7613
453	6318	7599
454	6331	7584
455	6344	7569
456	6357	7553
457	6370	7538
458	6383	7524
459	6397	7509
460	6411	7495
461	6423	7480
462	6437	7466
463	6450	7451
464	6463	7437
465	6476	7421
466	6489	7407
467	6504	7393
468	6517	7379
469	6531	7365
470	6544	7350
471	6557	7335
472	6571	7322
473	6586	7308
474	6599	7294
475	6613	7279
476	6627	7266
477	6640	7251
478	6653	7237
479	6666	7222
480	6679	7207
481	6692	7192
482	6706	7178
483	6719	7163
484	6732	7148
485	6745	7134
486	6760	7121
487	6773	7106
488	6788	7094
489	6801	7079
490	6815	7065
491	6828	7050
492	6842	7036
493	6855	7021
494	6867	7006
495	6880	6991
496	6893	6977
497	6908	6963
498	6920	6948
499	6933	6933
500	6947	6919
501	6961	6905
502	6973	6890
503	6986	6876
504	6999	6860
505	7012	6846
506	7025	6831
507	7039	6817
508	7053	6803
509	7066	6789
510	7080	6775
511	7095	6763
512	7109	6748
513	7122	6734
514	7135	6720
515	7149	6705
516	7161	6690
517	7175	6676
518	7187	6661
519	7201	6647
520	7214	6633
521	7228	6619
522	7254	6616
523	7268	6602
524	7282	6588
525	7297	6576
526	7312	6562
527	7327	6549
528	7339	6535
529	7352	6520
530	7365	6505
531	7379	6491
532	7392	6477
533	7407	6464
534	7421	6450
535	7434	6436
536	7449	6423
537	7462	6408
538	7475	6394
539	7489	6379
540	7503	6365
541	7516	6351
542	7530	6337
543	7543	6323
544	7558	6310
545	7573	6297
546	7588	6284
547	7602	6270
548	7617	6257
549	7632	6244
550	7647	6231
551	7661	6218
552	7675	6203
553	7689	6190
554	7702	6175
555	7715	6161
556	7730	6148
557	7743	6133
558	7756	6119
559	7770	6105
560	7783	6090
561	7796	6076
562	7809	6061
563	7822	6046
564	7834	6032
565	7847	6017
566	7862	6004
567	7875	5989
568	7889	5975
569	7903	5961
570	7916	5947
571	7929	5933
572	7943	5919
573	7956	5904
574	7970	5890
575	7982	5876
576	7995	5861
577	8008	5846
578	8021	5832
579	8034	5818
580	8047	5803
581	8060	5788
582	8073	5774
583	8085	5759
584	8099	5745
585	8112	5731
586	8125	5717
587	8139	5703
588	8153	5689
589	8166	5674
590	8179	5660
591	8194	5647
592	8206	5632
593	8220	5618
594	8233	5604
595	8246	5589
596	8259	5575
597	8272	5561
598	8285	5546
599	8298	5532
600	8312	5518
601	8325	5503
602	8337	5489
603	8350	5475
604	8363	5460
605	8376	5446
606	8390	5432
607	8403	5418
608	8417	5404
609	8431	5390
610	8445	5376
611	8457	5362
612	8471	5348
613	8484	5334
614	8497	5319
615	8510	5305
616	8523	5291
617	8537	5276
618	8551	5263
619	8565	5249
620	8579	5236
621	8593	5222
622	8606	5208
623	8619	5193
624	8632	5179
625	8644	5164
626	8658	5150
627	8672	5136
628	8686	5123
629	8699	5109
630	8712	5094
631	8725	5080
632	8738	5066
633	8752	5052
634	8765	5038
635	8778	5024
636	8792	5010
637	8805	4996
638	8818	4981
639	8830	4967
640	8843	4953
641	8856	4938
642	8870	4924
643	8883	4910
644	8895	4896
645	8908	4881
646	8922	4867
647	8937	4855
648	8952	4841
649	8965	4827
650	8978	4813
651	8991	4799
652	9004	4784
653	9017	4770
654	9030	4756
655	9043	4742
656	9056	4727
657	9069	4714
658	9083	4700
659	9097	4686
660	9129	4682
661	9149	4671
662	9162	4657
663	9176	4643
664	9190	4629
665	9204	4616
666	9218	4602
667	9231	4587
668	9244	4573
669	9257	4559
670	9270	4545
671	9284	4531
672	9297	4517
673	9309	4503
674	9322	4488
675	9335	4474
676	9368	4469
677	9384	4457
678	9397	4442
679	9411	4428
680	9437	4420
681	9450	4406
682	9463	4392
683	9476	4378
684	9490	4364
685	9504	4350
686	9521	4337
687	9534	4323
688	9549	4310
689	9562	4296
690	9576	4282
691	9589	4268
692	9602	4253
693	9616	4240
694	9629	4225
695	9641	4211
696	9655	4197
697	9668	4183
698	9682	4169
699	9696	4155
700	9709	4141
701	9721	4126
702	9744	4116
703	9756	4102
704	9769	4087
705	9782	4073
706	9796	4059
707	9810	4046
708	9824	4032
709	9837	4017
710	9849	4003
711	9863	3989
712	9876	3975
713	9891	3962
714	9904	3947
715	9917	3933
716	9930	3919
717	9943	3905
718	9956	3891
719	9969	3876
720	9981	3862
721	9994	3848
722	10007	3834
723	10020	3819
724	10033	3805
725	10045	3791
726	10059	3777
727	10073	3763
728	10088	3750
729	10102	3736
730	10115	3722
731	10128	3708
732	10142	3694
733	10155	3680
734	10169	3666
735	10182	3652
736	10194	3638
737	10208	3624
738	10221	3610
739	10234	3595
740	10247	3581
741	10260	3567
742	10273	3553
743	10286	3539
744	10299	3525
745	10311	3510
746	10325	3496
747	10338	3483
748	10352	3469
749	10365	3455
750	10379	3441
751	10393	3427
752	10406	3413
753	10419	3399
754	10433	3385
755	10446	3371
756	10458	3357
757	10471	3343
758	10484	3329
759	10498	3315
760	10510	3300
761	10523	3286
762	10538	3273
763	10552	3259
764	10566	3245
765	10580	3232
766	10593	3218
767	10607	3204
768	10621	3190
769	10635	3176
770	10648	3162
771	10661	3148
772	10674	3134
773	10687	3120
774	10700	3106
775	10713	3092
776	10726	3078
777	10739	3064
778	10752	3050
779	10766	3036
780	10778	3022
781	10791	3008
782	10805	2994
783	10817	2980
784	10830	2966
785	10843	2952
786	10857	2938
787	10870	2924
788	10884	2910
789	10897	2896
790	10911	2883
791	10924	2868
792	10937	2854
793	10950	2841
794	10973	2829
795	10986	2815
796	11000	2801
797	11012	2787
798	11025	2773
799	11039	2759
800	11052	2745
801	11065	2731
802	11077	2717
803	11090	2703
804	11103	2689
805	11117	2675
806	11131	2662
807	11144	2648
808	11159	2634
809	11172	2620
810	11185	2606
811	11198	2592
812	11211	2578
813	11224	2564
814	11237	2550
815	11251	2536
816	11264	2523
817	11277	2509
818	11290	2495
819	11303	2481
820	11315	2467
821	11329	2453
822	11341	2439
823	11355	2425
824	11367	2411
825	11380	2397
826	11393	2383
827	11408	2369
828	11422	2356
829	11436	2342
830	11450	2328
831	11474	2316
832	11488	2303
833	11501	2289
834	11515	2275
835	11528	2261
836	11542	2247
837	11556	2234
838	11569	2220
839	11582	2206
840	11595	2192
841	11608	2178
842	11621	2164
843	11634	2150
844	11656	2138
845	11670	2124
846	11684	2110
847	11698	2096
848	11712	2083
849	11725	2069
850	11738	2055
851	11751	2041
852	11766	2027
853	11778	2013
854	11791	1999
855	11804	1985
856	11817	1971
857	11830	1957
858	11843	1943
859	11856	1930
860	11868	1916
861	11882	1902
862	11895	1888
863	11908	1874
864	11921	1860
865	11934	1846
866	11947	1832
867	11961	1819
868	11975	1805
869	11989	1791
870	12002	1777
871	12015	1763
872	12029	1750
873	12042	1736
874	12056	1722
875	12069	1708
876	12082	1694
877	12095	1680
878	12108	1666
879	12120	1652
880	12134	1639
881	12147	1625
882	12160	1611
883	12173	1597
884	12186	1583
885	12200	1569
886	12214	1556
887	12228	1542
888	12241	1528
889	12254	1514
890	12268	1500
891	12282	1487
892	12295	1473
893	12308	1459
894	12321	1445
895	12334	1431
896	12347	1417
897	12361	1404
898	12374	1390
899	12387	1376
900	12400	1362
901	12414	1348
902	12426	1334
903	12439	1321
904	12452	1307
905	12465	1293
906	12479	1279
907	12492	1265
908	12506	1252
909	12520	1238
910	12533	1224
911	12547	1210
912	12560	1196
913	12573	1183
914	12587	1169
915	12600	1155
916	12613	1141
917	12626	1127
918	12640	1114
919	12653	1100
920	12666	1086
921	12679	1072
922	12692	1058
923	12705	1045
924	12718	1031
925	12730	1017
926	12744	1003
927	12759	989
928	12773	976
929	12786	962
930	12799	948
931	12813	934
932	12827	921
933	12841	907
934	12853	893
935	12866	879
936	12879	865
937	12893	852
938	12906	838
939	12919	824
940	12932	810
941	12946	797
942	12959	783
943	12972	769
944	12985	755
945	12997	741
946	13011	728
947	13025	714
948	13039	700
949	13052	686
950	13069	673
951	13081	659
952	13094	645
953	13107	632
954	13120	618
955	13134	604
956	13147	590
957	13160	576
958	13186	563
959	13199	549
960	13212	536
961	13225	522
962	13237	508
963	13250	494
964	13264	481
965	13277	467
966	13291	453
967	13305	439
968	13319	426
969	13332	412
970	13345	398
971	13358	384
972	13371	371
973	13385	357
974	13397	343
975	13411	329
976	13424	316
977	13436	302
978	13450	288
979	13462	274
980	13475	260
981	13489	247
982	13503	233
983	13518	219
984	13531	206
985	13544	192
986	13558	178
987	13571	164
988	13585	151
989	13600	137
990	13614	123
991	13627	109
992	13641	96
993	13654	82
994	13666	68
995	13679	54
996	13692	41
997	13705	27
998	13735	13
999	13753	0
